,,,,Control #1,,Control #2,,Control #3,,Nuclease #1,,Nuclease #2,,Nuclease #3,
Target,chr,start,end,Indel_control_1,Total_control_1,Indel_control_2,Total_control_2,Indel_control_3,Total_control_3,Indel_RNP_1,Total_RNP_1,Indel_RNP_2,Total_RNP_2,Indel_RNP_3,Total_RNP_3
AAVS1_site_01,chr19,55115744,55115767,32,62367,35,56061,40,58542,13431,42543,9791,33177,16646,60282
AAVS1_site_02,chr19,55115756,55115779,39,20048,30,14011,38,23694,20695,29226,15983,22794,12231,18379
AAVS1_site_03,chr19,55115811,55115834,16,20435,18,18203,17,19127,10580,28237,7966,20942,11632,31741
AAVS1_site_04,chr19,55115851,55115874,18,19176,10,21342,9,23620,6332,19335,7198,20732,10064,29692
AAVS1_site_05,chr19,55115712,55115735,26,37995,30,50957,40,51088,17553,55276,14418,45699,20024,60281
AAVS1_site_06,chr19,55115879,55115902,8,26714,3,26307,5,36323,3465,39029,2815,37317,1206,21158
AAVS1_site_07,chr19,55115765,55115788,11,19267,10,21327,19,25471,3664,18083,4324,20274,5514,26229
AAVS1_site_08,chr19,55115887,55115910,5,11164,13,11971,10,12271,10784,15143,9581,15161,4514,6890
AAVS1_site_09,chr19,55115663,55115686,158,62278,161,55976,153,58456,15707,42518,12006,33072,22395,60084
AAVS1_site_10,chr19,55116262,55116285,12,11401,16,7666,9,12696,16261,18137,11478,12795,8964,9961
AAVS1_site_11,chr19,55116295,55116318,11,12737,20,10934,13,10657,13730,14761,10413,11122,15568,16850
AAVS1_site_12,chr19,55116368,55116391,13,17983,13,15007,21,16095,13593,14964,13902,15790,16310,18206
AAVS1_site_13,chr19,55115767,55115790,45,38098,48,51151,58,51264,23165,55553,19080,45740,24379,60766
AAVS1_site_14,chr19,55115748,55115771,30,17954,29,16781,28,24403,21397,24028,21725,24903,12957,14722
B2M_site_01,chr15,44711539,44711562,12,13322,17,15249,21,19054,10442,10894,15187,15754,15953,16643
B2M_site_02,chr15,44711578,44711601,8,13286,7,13365,8,16323,5951,18462,6004,19201,4858,15234
B2M_site_03,chr15,44711562,44711585,19,21549,20,18383,22,19085,12508,12994,8647,8977,18916,19643
B2M_site_04,chr15,44711541,44711564,13,14648,21,12029,15,19749,18264,19097,15270,16089,15819,16647
B2M_site_05,chr15,44715520,44715543,9,10054,9,7444,12,8734,11033,11325,6884,7104,12167,12497
B2M_site_06,chr15,44715628,44715651,15,17002,16,15710,9,17006,8922,11585,9257,11902,12598,16552
B2M_site_07,chr15,44715629,44715652,20,11906,16,16165,27,18525,12735,13284,10601,11289,18104,18991
CBLB_site_04,chr3,105867536,105867559,24,27227,26,26399,29,38407,23374,33759,23024,33086,18323,26641
CBLB_site_05,chr3,105867528,105867551,28,28597,35,33424,36,35696,17829,23087,23047,28156,26267,32163
CBLB_site_06,chr3,105867527,105867550,11,30952,15,27238,14,31569,9723,38265,9924,37042,7318,29808
CBLB_site_08,chr3,105867486,105867509,18,33476,18,31277,21,30120,15583,20306,10849,14515,25261,33677
CBLB_site_09,chr3,105867476,105867499,26,27328,23,25027,18,33040,19858,31204,18073,29170,22053,34463
CCR5_site_03,chr3,46372994,46373017,25,34012,35,31405,33,36775,25723,34634,21649,29051,32852,44190
CCR5_site_04,chr3,46372990,46373013,4,36139,8,34272,10,32319,6342,27542,5809,28447,7473,34312
CCR5_site_05,chr3,46373169,46373192,7,16680,9,23821,16,24987,6681,15768,6133,14462,9204,21354
CCR5_site_07,chr3,46373151,46373174,12,21386,17,21343,23,28570,21983,25125,19866,22907,10017,11352
CCR5_site_08,chr3,46373129,46373152,25,23031,37,26066,57,33094,15950,17505,17576,19427,19429,21286
CCR5_site_09,chr3,46373261,46373284,9,15728,10,18767,11,19071,7543,16391,7851,17076,6791,14805
CCR5_site_11,chr3,46373152,46373175,13,21802,16,18031,24,20324,19284,23328,16909,21219,16345,19428
CCR5_site_13,chr3,46373483,46373506,11,21363,6,16799,12,17559,6315,19403,6037,19530,6199,18386
CCR5_site_14,chr3,46373339,46373362,13,16259,9,12044,7,13691,8401,16753,8661,12149,10816,15284
CCR5_site_15,chr3,46373367,46373390,30,25937,17,21845,29,24671,13017,23195,14248,25376,12672,21718
CCR5_site_16,chr3,46373431,46373454,3,22183,7,18307,4,46,8084,31248,5186,21391,5110,20703
CTLA4_site_01,chr2,203870589,203870612,22,16429,20,14565,19,15705,15948,17703,10550,11920,11960,13637
CTLA4_site_02,chr2,203870595,203870618,8,3302,20,24310,14,27463,9912,18970,8389,15906,9008,16696
CTLA4_site_03,chr2,203870608,203870631,46,55677,62,48484,42,51297,18030,58344,44017,150363,17014,56402
CTLA4_site_04,chr2,203870644,203870667,26,22419,24,15926,15,19848,22784,24068,17649,18758,17902,18980
CTLA4_site_05,chr2,203870694,203870717,9,35091,7,27885,10,27394,10600,44342,5771,27726,6349,28247
CTLA4_site_06,chr2,203870729,203870752,26,17102,22,12365,22,14224,21954,23964,13223,14558,17586,19308
CTLA4_site_07,chr2,203870618,203870641,6,18904,3,16445,7,18575,3215,21603,2871,20095,2684,17339
CTLA4_site_08,chr2,203870762,203870785,22,19321,24,16206,33,24742,21336,23114,16922,18207,17027,18263
CTLA4_site_09,chr2,203870827,203870850,23,20928,18,16945,21,19105,17534,21296,15786,18803,14740,17947
CTLA4_site_10,chr2,203870795,203870818,21,4353,35,27923,35,35820,18092,23791,17367,23338,23735,30705
CTLA4_site_11,chr2,203870597,203870620,76,55680,98,48499,88,51311,28304,58209,77317,150284,28701,56223
CTLA4_site_12,chr2,203867965,203867988,17,17275,12,12506,7,17428,14758,18752,13943,15617,14169,15809
CTLA4_site_13,chr2,203870847,203870870,24,34945,17,27808,13,27304,18353,43713,13012,27131,13133,27632
CXCR4_site_01,chr2,136115877,136115900,37,25008,18,18963,25,21712,21177,29998,16666,23184,22201,30541
CXCR4_site_02,chr2,136115826,136115849,12,20571,15,17704,12,19386,11948,20729,11969,20237,10202,17866
CXCR4_site_03,chr2,136115780,136115803,27,21842,26,17814,23,27819,22089,27425,12958,16387,16822,20942
CXCR4_site_04,chr2,136115743,136115766,31,23949,26,20141,33,21847,23805,27321,17017,19275,18392,21282
CXCR4_site_05,chr2,136115696,136115719,20,3942,22,26731,30,26317,16516,19749,12134,14845,12116,14385
CXCR4_site_06,chr2,136115653,136115676,95,38692,81,33004,80,34425,41370,45843,98777,106334,36751,39593
CXCR4_site_07,chr2,136115707,136115730,16,19341,25,15624,23,17626,19371,21508,16737,18973,15232,17375
CXCR4_site_08,chr2,136115867,136115890,34,25130,19,20846,14,20771,19754,25923,16277,21228,17087,22332
CXCR4_site_10,chr2,136115613,136115636,19,26628,20,21826,24,22738,12947,24295,13167,23471,20177,30272
CXCR4_site_11,chr2,136115680,136115703,30,45680,25,39237,25,42783,22631,48759,20205,45466,17759,40618
FAS_site_01,chr10,88990893,88990916,25,20593,27,15930,24,25277,28319,29733,18569,19593,18075,19073
FAS_site_02,chr10,88991146,88991169,41,18712,37,18856,37,18448,17452,23577,12183,16522,11949,16908
FAS_site_03,chr10,88991166,88991189,23,5292,33,36865,31,36825,25680,27669,20553,22142,20311,22615
FAS_site_04,chr10,88991183,88991206,92,40363,107,33690,85,33731,36144,37352,122034,126926,37188,38732
FAS_site_05,chr10,88991151,88991174,124,108488,87,70827,92,81007,133962,138846,104112,109096,76033,80193
LAG3_site_01,chr12,6772851,6772874,8,19915,6,15464,7,22204,11502,19325,9016,16207,9250,16284
LAG3_site_02,chr12,6772878,6772901,13,25799,7,17283,6,24906,12830,30517,7906,20739,9757,23338
LAG3_site_03,chr12,6772869,6772892,9,17950,3,14879,6,20942,14572,21442,10111,15559,11610,18213
LAG3_site_04,chr12,6773195,6773218,16,98450,15,80627,13,89763,5128,170412,2779,92971,2894,98840
LAG3_site_05,chr12,6773216,6773239,63,117579,48,102642,52,106844,19383,96890,17824,92796,19831,100157
LAG3_site_06,chr12,6773222,6773245,22,70111,17,64116,23,59609,1687,85343,1196,65906,1138,62597
LAG3_site_07,chr12,6773234,6773257,28,72298,65,54390,30,74637,15866,102700,8051,66646,11982,78783
LAG3_site_08,chr12,6773258,6773281,99,87586,60,60057,70,69605,64223,124221,54174,102683,42019,71867
LAG3_site_09,chr12,6773276,6773299,117,121026,78,90163,112,106175,67815,105212,56111,86974,53201,90369
LAG3_site_10,chr12,6773247,6773270,115,131661,78,85001,87,105495,61813,143817,43494,100843,47312,108115
PDCD1_site_01,chr2,241858801,241858824,24,22128,20,24147,20,14086,40137,45067,768,32084,22843,25795
PDCD1_site_02,chr2,241858798,241858821,13,20130,20,21527,21,15427,23250,24590,18157,19286,19329,20498
PDCD1_site_03,chr2,241858785,241858808,13,23126,46,31101,29,37544,33716,35266,28015,29510,32105,34073
PDCD1_site_04,chr2,241858781,241858804,18,37546,30,50304,35,54214,22208,29536,29866,39610,34698,47013
PDCD1_site_05,chr2,241852916,241852939,15,21962,20,97,18,20645,17418,28661,12289,20866,16104,27373
PDCD1_site_06,chr2,241852921,241852944,23,47132,29,59873,26,66300,7239,52003,5998,55175,6186,56543
PDCD1_site_07,chr2,241852952,241852975,44,53964,35,40006,42,47141,4748,58231,3180,43945,3221,44343
PDCD1_site_08,chr2,241852930,241852953,76,37323,104,51998,111,48426,1870,42542,1769,48942,1948,48177
PDCD1_site_09,chr2,241852953,241852976,25,21103,39,27214,27,16350,17978,43899,12594,29749,11129,25090
PDCD1_site_10,chr2,241852942,241852965,5,18644,4,23355,7,16357,1665,25238,1559,20952,1585,21495
PDCD1_site_11,chr2,241852900,241852923,14,16600,23,22047,26,26925,13213,27814,11505,22626,12962,25248
PDCD1_site_12,chr2,241852943,241852966,11,25809,12,34874,12,38842,1944,24501,2942,33176,2865,35645
PDCD1_site_13,chr2,241852725,241852748,10,31040,23,48976,27,30150,18945,38946,15499,34163,19042,39409
PDCD1_site_14,chr2,241852782,241852805,8,28177,4,35950,6,39808,3687,29204,4314,35197,4571,36027
PDCD1_site_15,chr2,241852882,241852905,22,40529,42,36535,23,31882,25583,30679,22502,27466,32910,40391
PDCD1_site_16,chr2,241852821,241852844,13,37295,30,51951,24,48376,14642,42265,19108,48475,17510,47709
PTPN2_site_01,chr18,12859204,12859227,45,47248,53,63207,53,55330,81513,88647,63105,70583,48721,52597
PTPN2_site_02,chr18,12840742,12840765,42,56213,60,71491,77,65934,53972,59709,55641,59843,64454,69818
PTPN2_site_03,chr18,12840738,12840761,43,45836,81,65273,34,81895,52299,78079,45498,68392,50396,78428
PTPN6_site_01,chr12,6952114,6952137,54,60380,36,55268,39,58498,107450,116853,58058,63006,59022,64114
PTPN6_site_02,chr12,6951987,6952010,41,52549,105,86936,58,54641,66372,69692,54079,62496,65638,70268
PTPN6_site_03,chr12,6952025,6952048,49,51471,69,70356,62,74996,43646,55136,50965,65192,52183,66566
PTPN6_site_04,chr12,6951610,6951633,37,70661,34,67921,40,53675,36548,43356,30374,35546,56296,65870
PTPN6_site_05,chr12,6951642,6951665,12,46297,21,63313,22,62341,16325,50756,21520,65330,18597,58049
PTPN6_site_06,chr12,6951636,6951659,57,60336,68,79855,70,93297,91523,95824,76093,79135,62767,65267
PTPN6_site_07,chr12,6952022,6952045,49,54977,67,72621,85,70480,55986,57949,58217,60116,71107,73061
PTPN6_site_08,chr12,6952054,6952077,34,44467,52,65811,49,82148,45329,75155,39571,65017,47275,75067
PTPN6_site_09,chr12,6952145,6952168,64,51386,92,63935,88,74987,37610,41505,49466,54654,56482,62131
TRAC_site_01,chr14,22547499,22547522,28,44326,70,69923,63,45054,48637,55854,46386,52688,51359,59090
TRAC_site_02,chr14,22547515,22547538,47,49954,54,65526,62,71059,44243,50988,58723,67538,63267,71824
TRAC_site_03,chr14,22547572,22547595,61,66740,102,70469,74,82344,113314,134273,81974,96988,70370,82664
TRAC_site_04,chr14,22547756,22547779,47,44310,69,63992,73,63272,38662,52997,42366,61125,42033,58005
TRAC_site_05,chr14,22549660,22549683,10,112704,13,93630,13,90765,1294,104900,974,87979,1775,87581
TRBC1_site_01,chr7,142791700,142791723,31,58208,28,40126,25,38998,39257,47116,28004,32248,23839,29787
TRBC1_site_02,chr7,142791845,142791867,15,17182,7,13299,13,18806,14927,18890,10730,13753,11963,16007
